-------------------------------------------------------------------------------
Test set: MMBSmoke.MMBSmoke.runner.TestRunner
-------------------------------------------------------------------------------
Tests run: 20, Failures: 0, Errors: 0, Skipped: 0, Time elapsed: 162.662 sec
