<?xml version="1.0" encoding="UTF-8" ?>
<testsuite tests="20" failures="0" name="MMBSmoke.MMBSmoke.runner.TestRunner" time="0.025" errors="0" skipped="0">
  <properties>
    <property name="java.runtime.name" value="Java(TM) SE Runtime Environment"/>
    <property name="java.vm.version" value="12.0.2+10"/>
    <property name="sun.boot.library.path" value="C:\Program Files\Java\jdk-12.0.2\bin"/>
    <property name="maven.multiModuleProjectDirectory" value="D:\MMBWorkSpace\MMBSmoke\health-mmbasiaportal-testautomation"/>
    <property name="java.vm.vendor" value="Oracle Corporation"/>
    <property name="java.vendor.url" value="https://java.oracle.com/"/>
    <property name="guice.disable.misplaced.annotation.check" value="true"/>
    <property name="path.separator" value=";"/>
    <property name="java.vm.name" value="Java HotSpot(TM) 64-Bit Server VM"/>
    <property name="sun.os.patch.level" value=""/>
    <property name="user.script" value=""/>
    <property name="user.country" value="US"/>
    <property name="sun.java.launcher" value="SUN_STANDARD"/>
    <property name="java.vm.specification.name" value="Java Virtual Machine Specification"/>
    <property name="user.dir" value="D:\MMBWorkSpace\MMBSmoke\health-mmbasiaportal-testautomation"/>
    <property name="java.vm.compressedOopsMode" value="32-bit"/>
    <property name="java.runtime.version" value="12.0.2+10"/>
    <property name="java.awt.graphicsenv" value="sun.awt.Win32GraphicsEnvironment"/>
    <property name="os.arch" value="amd64"/>
    <property name="java.io.tmpdir" value="C:\Users\U81099~1\AppData\Local\Temp\3\"/>
    <property name="line.separator" value="
"/>
    <property name="java.vm.specification.vendor" value="Oracle Corporation"/>
    <property name="user.variant" value=""/>
    <property name="os.name" value="Windows Server 2016"/>
    <property name="classworlds.conf" value="D:\apache-maven-3.6.1-bin\bin\..\bin\m2.conf"/>
    <property name="sun.jnu.encoding" value="Cp1252"/>
    <property name="java.library.path" value="C:\Program Files\Java\jdk-12.0.2\bin;C:\Windows\Sun\Java\bin;C:\Windows\system32;C:\Windows;C:\Program Files (x86)\Common Files\Oracle\Java\javapath;C:\Windows\system32;C:\Windows;C:\Windows\System32\Wbem;C:\Windows\System32\WindowsPowerShell\v1.0\;D:\apache-maven-3.6.1-bin\bin;C:\Users\rvelasquez_app\AppData\Local\Microsoft\WindowsApps;C:\Users\rvelasquez_app\AppData\Local\Microsoft\WindowsApps;C:\Program Files\Docker;C:\Program Files\Git\cmd;C:\Users\u810991_app\AppData\Local\Microsoft\WindowsApps;D:\apache-maven-3.6.1-bin\bin;."/>
    <property name="maven.conf" value="D:\apache-maven-3.6.1-bin\bin\../conf"/>
    <property name="jdk.debug" value="release"/>
    <property name="java.class.version" value="56.0"/>
    <property name="java.specification.name" value="Java Platform API Specification"/>
    <property name="sun.management.compiler" value="HotSpot 64-Bit Tiered Compilers"/>
    <property name="os.version" value="10.0"/>
    <property name="library.jansi.path" value="D:\apache-maven-3.6.1-bin\bin\..\lib\jansi-native"/>
    <property name="user.home" value="C:\Users\u810991_app"/>
    <property name="user.timezone" value="Asia/Singapore"/>
    <property name="file.encoding" value="Cp1252"/>
    <property name="java.specification.version" value="12"/>
    <property name="user.name" value="u810991_app"/>
    <property name="java.class.path" value="D:\apache-maven-3.6.1-bin\bin\..\boot\plexus-classworlds-2.6.0.jar"/>
    <property name="java.vm.specification.version" value="12"/>
    <property name="sun.arch.data.model" value="64"/>
    <property name="sun.java.command" value="org.codehaus.plexus.classworlds.launcher.Launcher test"/>
    <property name="java.home" value="C:\Program Files\Java\jdk-12.0.2"/>
    <property name="user.language" value="en"/>
    <property name="java.specification.vendor" value="Oracle Corporation"/>
    <property name="awt.toolkit" value="sun.awt.windows.WToolkit"/>
    <property name="java.vm.info" value="mixed mode, sharing"/>
    <property name="java.version" value="12.0.2"/>
    <property name="java.vendor" value="Oracle Corporation"/>
    <property name="sun.stderr.encoding" value="cp437"/>
    <property name="maven.home" value="D:\apache-maven-3.6.1-bin\bin\.."/>
    <property name="file.separator" value="\"/>
    <property name="java.version.date" value="2019-07-16"/>
    <property name="java.vendor.url.bug" value="https://bugreport.java.com/bugreport/"/>
    <property name="sun.io.unicode.encoding" value="UnicodeLittle"/>
    <property name="sun.cpu.endian" value="little"/>
    <property name="sun.stdout.encoding" value="cp437"/>
    <property name="sun.desktop" value="windows"/>
    <property name="sun.cpu.isalist" value="amd64"/>
  </properties>
  <testcase classname="Scenario: Verify the page elements of Your Coverage Information section" name="Given user launched the browser" time="0.022"/>
  <testcase classname="Scenario: Verify the page elements of Your Coverage Information section" name="Then user enter username and password" time="0"/>
  <testcase classname="Scenario: Verify the page elements of Your Coverage Information section" name="Then user is on the employee home page" time="0"/>
  <testcase classname="Scenario: Verify the page elements of Your Coverage Information section" name="And user click on the main menu button" time="0"/>
  <testcase classname="Scenario: Verify the page elements of Your Coverage Information section" name="When user click on the dental link button" time="0"/>
  <testcase classname="Scenario: Verify the page elements of Your Coverage Information section" name="Then dental page should display" time="0"/>
  <testcase classname="Scenario: Verify the page elements of Your Coverage Information section" name="Scenario: Verify the page elements of Your Coverage Information section" time="0.001"/>
  <testcase classname="Scenario: Verify the page elements of InPatient page" name="Given user click on the main menu button" time="0"/>
  <testcase classname="Scenario: Verify the page elements of InPatient page" name="When user click on the inpatient link button" time="0"/>
  <testcase classname="Scenario: Verify the page elements of InPatient page" name="Then inpatient page should display" time="0"/>
  <testcase classname="Scenario: Verify the page elements of InPatient page" name="Scenario: Verify the page elements of InPatient page" time="0"/>
  <testcase classname="Scenario: Verify the page elements of Maternity page" name="Given user click on the main menu button" time="0"/>
  <testcase classname="Scenario: Verify the page elements of Maternity page" name="When user click on the maternity link button" time="0"/>
  <testcase classname="Scenario: Verify the page elements of Maternity page" name="Then maternity page should display" time="0"/>
  <testcase classname="Scenario: Verify the page elements of Maternity page" name="Scenario: Verify the page elements of Maternity page" time="0.001"/>
  <testcase classname="Scenario: Verify the page elements of list of coverages page" name="Given user click on the main menu button" time="0.001"/>
  <testcase classname="Scenario: Verify the page elements of list of coverages page" name="When user click on the list of coverages link button" time="0"/>
  <testcase classname="Scenario: Verify the page elements of list of coverages page" name="Then list of coverages page should display" time="0"/>
  <testcase classname="Scenario: Verify the page elements of list of coverages page" name="Then close browser" time="0"/>
  <testcase classname="Scenario: Verify the page elements of list of coverages page" name="Scenario: Verify the page elements of list of coverages page" time="0"/>
</testsuite>